R Programming Basics – Hands-On Practical
…
# Keep only patient_id, age, group, expression
biomed_filtered <- biomed %>%
  select(patient_id, age, group, expression) %>%
  filter(age > 30 & group == "Treated")
biomed_filtered

# A tibble: 85 × 4
   patient_id   age group   expression
   <chr>      <dbl> <chr>        <dbl>
 1 P1            64 Treated       8.66
 2 P3            32 Treated      12.0 
 3 P8            31 Treated       8.97
 4 P11           49 Treated       7.88
 5 P15           71 Treated       9.45
 6 P16           71 Treated       6.17
 7 P17           54 Treated      12.7 
 8 P18           34 Treated      11.2 
 9 P20           73 Treated       7.29
10 P21           59 Treated       9.22
# ℹ 75 more rows

Description: - select(): Keeps only the specified columns (patient_id, age, group, expression). - filter(): Filters rows where age > 30 and group is “Treated”. Exercise: Select only the patient_id, group, and expression columns. Filter rows where expression is greater than 50 and group is “Control”.

# Patients older than 60 in Treated group
biomed %>%
  filter(age > 60, group == "Treated") %>%
  select(patient_id, age, group)

# A tibble: 29 × 3
   patient_id   age group  
   <chr>      <dbl> <chr>  
 1 P1            64 Treated
 2 P15           71 Treated
 3 P16           71 Treated
 4 P20           73 Treated
 5 P27           61 Treated
 6 P30           71 Treated
 7 P40           72 Treated
 8 P61           66 Treated
 9 P62           61 Treated
10 P64           66 Treated
# ℹ 19 more rows

Description: - filter(): Filters rows where age is greater than 60 and group is “Treated”. - select(): Keeps only the patient_id, age, and group columns. Exercise: - Filter patients with expression > 10 and group “Control”. - Select only the patient_id, age, and expression columns.

Mutate & Arrange

# Add a new column for age category and sort by expression
biomed_mutated <- biomed %>%
  mutate(age_category = ifelse(age > 50, "Senior", "Adult")) %>%
  arrange(desc(expression))
biomed_mutated

# A tibble: 200 × 15
   patient_id sex     age group region dose  marker_A marker_B marker_C marker_D
   <chr>      <chr> <dbl> <chr> <chr>  <chr>    <dbl>    <dbl>    <dbl>    <dbl>
 1 P54        Fema…    59 Trea… North  High      3.31    12.8      NA       2.15
 2 P127       Fema…    29 Trea… East   High      5.19    15.1      51.3     2.05
 3 P30        Fema…    71 Trea… South  High      4.57     9.95     43.8     1.28
 4 P168       Fema…    70 Trea… South  Low       2.34    16.4      54.5     0.14
 5 P91        Male     37 Trea… North  High      6.26    13.4      53.4     1.82
 6 P140       Fema…    48 Trea… North  High      5.25    14.1      44.1     2.64
 7 P10        Fema…    41 Cont… North  High      5.95    12.5      51.7     1.04
 8 P165       Fema…    48 Trea… North  High      5.14    12.4      49.3     1.96
 9 P79        Fema…    68 Trea… East   High      4.62    12.5      53.6     1.99
10 P102       Male     62 Trea… West   High      4.35    11.0      48.9     2.94
# ℹ 190 more rows
# ℹ 5 more variables: marker_E <dbl>, expression <dbl>, heart_rate <dbl>,
#   RBC_count <dbl>, age_category <chr>
…
